<?xml version="1.0" encoding="UTF-8"?>
<!DOCTYPE svg PUBLIC "-//W3C//DTD SVG 1.1//EN" "http://www.w3.org/Graphics/SVG/1.1/DTD/svg11.dtd">
<!-- Creator: CorelDRAW 2018 (64 Bit) -->
<svg xmlns="http://www.w3.org/2000/svg" xml:space="preserve" width="35px" height="40px" version="1.1" style="shape-rendering:geometricPrecision; text-rendering:geometricPrecision; image-rendering:optimizeQuality; fill-rule:evenodd; clip-rule:evenodd"
viewBox="0 0 0.048 0.055"
 xmlns:xlink="http://www.w3.org/1999/xlink">
 <defs>
  <style type="text/css">
   <![CDATA[
    .fil1 {fill:#B53629;fill-rule:nonzero}
    .fil0 {fill:#E2574C;fill-rule:nonzero}
    .fil2 {fill:white;fill-rule:nonzero}
   ]]>
  </style>
 </defs>
 <g id="Camada_x0020_1">
  <metadata id="CorelCorpID_0Corel-Layer"/>
  <g id="_3047646057920">
   <path class="fil0" d="M0.003 0l0.03 0 0.015 0.015 0 0.037c0,0.002 -0.001,0.003 -0.003,0.003l-0.042 0c-0.001,0 -0.003,-0.001 -0.003,-0.003l0 -0.049c0,-0.001 0.002,-0.003 0.003,-0.003z"/>
   <path class="fil1" d="M0.048 0.016l-0.012 0c-0.002,0 -0.003,-0.002 -0.003,-0.004l0 -0.012 0.015 0.016z"/>
   <path class="fil2" d="M0.035 0.026c0.001,0 0.001,0 0.001,-0.001 0,0 0,-0.001 -0.001,-0.001l-0.003 0c-0.001,0 -0.001,0.001 -0.001,0.001l0 0.008c0,0.001 0,0.002 0.001,0.002 0.001,0 0.001,-0.001 0.001,-0.002l0 -0.002 0.002 0c0.001,0 0.001,0 0.001,-0.001 0,0 0,-0.001 -0.001,-0.001l-0.002 0 0 -0.003 0.002 0zm-0.011 -0.002l-0.002 0c-0.001,0 -0.001,0.001 -0.001,0.001l0 0.008c0,0.001 0,0.001 0.001,0.001l0.002 0c0.003,0 0.005,-0.001 0.005,-0.005 0,-0.003 -0.002,-0.005 -0.005,-0.005zm0 0.008l-0.001 0 0 -0.006 0.001 0c0.002,0 0.003,0.002 0.003,0.003 0,0.002 -0.001,0.003 -0.003,0.003zm-0.008 -0.008l-0.003 0c-0.001,0 -0.001,0.001 -0.001,0.001l0 0.008c0,0.001 0.001,0.002 0.001,0.002 0.001,0 0.001,-0.001 0.001,-0.002l0 -0.002 0.002 0c0.001,0 0.003,-0.001 0.003,-0.003 0,-0.002 -0.001,-0.004 -0.003,-0.004zm-0.001 0.005l-0.001 0 0 -0.003 0.001 0c0.001,0 0.002,0.001 0.002,0.002 0,0 -0.001,0.001 -0.002,0.001z"/>
  </g>
 </g>
</svg>
